<svg width="20" height="23" viewBox="0 0 20 23" fill="none" xmlns="http://www.w3.org/2000/svg">
<path d="M19.6397 14.3775L17.5861 12.3239V9.60349C17.5837 7.7235 16.8843 5.91115 15.6232 4.5169C14.3621 3.12265 12.6288 2.24554 10.7584 2.05518V0.5H9.24119V2.05518C7.37085 2.24554 5.63754 3.12265 4.37641 4.5169C3.11528 5.91115 2.41592 7.7235 2.41357 9.60349V12.3239L0.359972 14.3775C0.217693 14.5198 0.137738 14.7127 0.137695 14.9139V17.1897C0.137695 17.3909 0.217622 17.5839 0.359891 17.7262C0.502161 17.8684 0.69512 17.9484 0.89632 17.9484H6.20669V18.5378C6.19019 19.5002 6.52941 20.4349 7.15936 21.1627C7.7893 21.8905 8.66566 22.3602 9.6205 22.4819C10.1479 22.5342 10.6804 22.4755 11.1837 22.3097C11.6871 22.1438 12.1501 21.8745 12.5431 21.5189C12.9361 21.1634 13.2503 20.7295 13.4656 20.2452C13.6808 19.7609 13.7923 19.2369 13.7929 18.707V17.9484H19.1033C19.3045 17.9484 19.4975 17.8684 19.6397 17.7262C19.782 17.5839 19.8619 17.3909 19.8619 17.1897V14.9139C19.8619 14.7127 19.7819 14.5198 19.6397 14.3775ZM12.2757 18.707C12.2757 19.3106 12.0359 19.8895 11.6091 20.3163C11.1823 20.7431 10.6034 20.9829 9.99981 20.9829C9.39621 20.9829 8.81734 20.7431 8.39053 20.3163C7.96372 19.8895 7.72394 19.3106 7.72394 18.707V17.9484H12.2757V18.707ZM18.3447 16.4311H1.65494V15.2279L3.70854 13.1743C3.85082 13.0321 3.93077 12.8392 3.93082 12.638V9.60349C3.93082 7.99389 4.57023 6.45022 5.70838 5.31206C6.84654 4.17391 8.39021 3.5345 9.99981 3.5345C11.6094 3.5345 13.1531 4.17391 14.2912 5.31206C15.4294 6.45022 16.0688 7.99389 16.0688 9.60349V12.638C16.0688 12.8392 16.1488 13.0321 16.2911 13.1743L18.3447 15.2279V16.4311Z" fill="white"/>
</svg>
